{"success":true,"artist":{"name":"L├ÜA AUREA","slug":"l├║a-aurea","imageUrl":"https://firebasestorage.googleapis.com/v0/b/artist-boost.firebasestorage.app/o/artist-profiles%2F1386%2Fprofile_1777212594605_a2da4fa6-56e0-454a-84aa-f5a4fce01ff9.png?alt=media&token=4193645f-ce35-4304-bde7-a9117950526d","genre":"DEEP HOUSE","masterDesignUrl":"https://firebasestorage.googleapis.com/v0/b/artist-boost.firebasestorage.app/o/artist-profiles%2F1386%2Fprofile_1777212594605_a2da4fa6-56e0-454a-84aa-f5a4fce01ff9.png?alt=media&token=4193645f-ce35-4304-bde7-a9117950526d","pgId":1386},"catalog":{"products":[{"printfulId":71,"name":"Classic T-Shirt","description":"Bella + Canvas 3001 ΓÇó 100% combed ring-spun cotton, retail fit","category":"Apparel","subcategory":"T-Shirts","technique":"dtg","baseCost":11.69,"retailPrice":46.99,"placement":"front","isAllOverPrint":false,"tags":["tshirt","essential","cotton"],"gender":"unisex","featured":true,"priority":1,"artistName":"L├ÜA AUREA","displayName":"L├ÜA AUREA Classic T-Shirt","designUrl":"https://firebasestorage.googleapis.com/v0/b/artist-boost.firebasestorage.app/o/artist-profiles%2F1386%2Fprofile_1777212594605_a2da4fa6-56e0-454a-84aa-f5a4fce01ff9.png?alt=media&token=4193645f-ce35-4304-bde7-a9117950526d","productImageUrl":"https://files.cdn.printful.com/o/upload/product-catalog-img/20/2079a3ee4cc472ad952fe16654f274cd_l"},{"printfulId":380,"name":"Premium Hoodie","description":"Cotton Heritage M2580 ΓÇó 13oz heavyweight fleece, kangaroo pocket","category":"Hoodies & Sweatshirts","subcategory":"Hoodies","technique":"dtg","baseCost":27.29,"retailPrice":109.99,"placement":"front","isAllOverPrint":false,"tags":["hoodie","essential","heavyweight"],"gender":"unisex","featured":true,"priority":2,"artistName":"L├ÜA AUREA","displayName":"L├ÜA AUREA Premium Hoodie","designUrl":"https://firebasestorage.googleapis.com/v0/b/artist-boost.firebasestorage.app/o/artist-profiles%2F1386%2Fprofile_1777212594605_a2da4fa6-56e0-454a-84aa-f5a4fce01ff9.png?alt=media&token=4193645f-ce35-4304-bde7-a9117950526d","productImageUrl":"https://files.cdn.printful.com/o/upload/product-catalog-img/0e/0e62ae87da7d32dfb60d6dadc3744346_l"}],"total":91,"totalCatalog":91,"page":1,"limit":2,"totalPages":46},"categories":[{"category":"Hats & Beanies","count":12},{"category":"Home & Living","count":12},{"category":"Apparel","count":11},{"category":"Hoodies & Sweatshirts","count":10},{"category":"Drinkware","count":10},{"category":"Shoes","count":8},{"category":"Wall Art","count":8},{"category":"Bags","count":7},{"category":"Stickers & Pins","count":6},{"category":"Phone Cases","count":5},{"category":"Accessories","count":2}],"featured":[{"printfulId":380,"name":"Premium Hoodie","description":"Cotton Heritage M2580 ΓÇó 13oz heavyweight fleece, kangaroo pocket","category":"Hoodies & Sweatshirts","subcategory":"Hoodies","technique":"dtg","baseCost":27.29,"retailPrice":109.99,"placement":"front","isAllOverPrint":false,"tags":["hoodie","essential","heavyweight"],"gender":"unisex","featured":true,"priority":2,"artistName":"L├ÜA AUREA","displayName":"L├ÜA AUREA Premium Hoodie","designUrl":"https://firebasestorage.googleapis.com/v0/b/artist-boost.firebasestorage.app/o/artist-profiles%2F1386%2Fprofile_1777212594605_a2da4fa6-56e0-454a-84aa-f5a4fce01ff9.png?alt=media&token=4193645f-ce35-4304-bde7-a9117950526d","productImageUrl":"https://files.cdn.printful.com/o/upload/product-catalog-img/0e/0e62ae87da7d32dfb60d6dadc3744346_l"},{"printfulId":627,"name":"Trucker Cap","description":"Otto Cap 39-165 ΓÇó Foam front, mesh back, snapback","category":"Hats & Beanies","subcategory":"Caps","technique":"embroidery","baseCost":11.95,"retailPrice":47.99,"placement":"front","isAllOverPrint":false,"tags":["cap","trucker","essential"],"gender":"unisex","featured":true,"priority":3,"artistName":"L├ÜA AUREA","displayName":"L├ÜA AUREA Trucker Cap","designUrl":"https://firebasestorage.googleapis.com/v0/b/artist-boost.firebasestorage.app/o/artist-profiles%2F1386%2Fprofile_1777212594605_a2da4fa6-56e0-454a-84aa-f5a4fce01ff9.png?alt=media&token=4193645f-ce35-4304-bde7-a9117950526d","productImageUrl":"https://files.cdn.printful.com/o/upload/product-catalog-img/4e/4e9119649dfbca7f1b1210b9fb3ce368_l"},{"printfulId":1,"name":"Matte Poster","description":"Enhanced matte paper, 200gsm, museum quality","category":"Wall Art","subcategory":"Posters","technique":"poster","baseCost":12.64,"retailPrice":50.99,"placement":"default","isAllOverPrint":false,"tags":["poster","matte","art"],"gender":"all","featured":true,"priority":4,"artistName":"L├ÜA AUREA","displayName":"L├ÜA AUREA Matte Poster","designUrl":"https://firebasestorage.googleapis.com/v0/b/artist-boost.firebasestorage.app/o/artist-profiles%2F1386%2Fprofile_1777212594605_a2da4fa6-56e0-454a-84aa-f5a4fce01ff9.png?alt=media&token=4193645f-ce35-4304-bde7-a9117950526d","productImageUrl":"https://files.cdn.printful.com/o/products/1/product_1613463122.jpg"},{"printfulId":19,"name":"White Glossy Mug","description":"Classic white ceramic mug, full-wrap print","category":"Drinkware","subcategory":"Mugs","technique":"sublimation","baseCost":5.95,"retailPrice":23.99,"placement":"default","isAllOverPrint":false,"tags":["mug","ceramic","essential"],"gender":"all","featured":true,"priority":5,"artistName":"L├ÜA AUREA","displayName":"L├ÜA AUREA White Glossy Mug","designUrl":"https://firebasestorage.googleapis.com/v0/b/artist-boost.firebasestorage.app/o/artist-profiles%2F1386%2Fprofile_1777212594605_a2da4fa6-56e0-454a-84aa-f5a4fce01ff9.png?alt=media&token=4193645f-ce35-4304-bde7-a9117950526d","productImageUrl":"https://files.cdn.printful.com/o/upload/product-catalog-img/8c/8c4ac4a450b8485bc8a6e041a5a23666_l"},{"printfulId":358,"name":"Kiss-Cut Stickers","description":"Premium vinyl, weather-resistant, dishwasher safe","category":"Stickers & Pins","subcategory":"Stickers","technique":"sublimation","baseCost":2.29,"retailPrice":9.99,"placement":"default","isAllOverPrint":false,"tags":["sticker","vinyl","essential"],"gender":"all","featured":true,"priority":6,"artistName":"L├ÜA AUREA","displayName":"L├ÜA AUREA Kiss-Cut Stickers","designUrl":"https://firebasestorage.googleapis.com/v0/b/artist-boost.firebasestorage.app/o/artist-profiles%2F1386%2Fprofile_1777212594605_a2da4fa6-56e0-454a-84aa-f5a4fce01ff9.png?alt=media&token=4193645f-ce35-4304-bde7-a9117950526d","productImageUrl":"https://files.cdn.printful.com/o/products/358/product_1553084472.jpg"},{"printfulId":253,"name":"Bucket Hat","description":"Flexfit 5003 ΓÇó Cotton twill bucket hat","category":"Hats & Beanies","subcategory":"Hats","technique":"embroidery","baseCost":20.25,"retailPrice":80.99,"placement":"front","isAllOverPrint":false,"tags":["bucket","hat"],"gender":"unisex","featured":false,"priority":29,"artistName":"L├ÜA AUREA","displayName":"L├ÜA AUREA Bucket Hat","designUrl":"https://firebasestorage.googleapis.com/v0/b/artist-boost.firebasestorage.app/o/artist-profiles%2F1386%2Fprofile_1777212594605_a2da4fa6-56e0-454a-84aa-f5a4fce01ff9.png?alt=media&token=4193645f-ce35-4304-bde7-a9117950526d","productImageUrl":"https://files.cdn.printful.com/o/products/253/product_1585059342.jpg"}],"artistProducts":[{"id":"E1fFefRSjA9NYWctfRy3","name":"L├ÜA AUREA Hoodie","description":"Premium L├ÜA AUREA hoodie","price":199,"imageUrl":"https://firebasestorage.googleapis.com/v0/b/artist-boost.firebasestorage.app/o/artist-images%2F1777257198647_3bkugg.png?alt=media","category":"Apparel","productType":"Hoodie","sizes":["S","M","L","XL","XXL"],"isCustom":false,"aiGenerated":true,"salesCount":0,"createdAt":1777257221548},{"id":"MhAjdjMpI6yQrFNcMaNq","name":"L├ÜA AUREA Sticker Pack","description":"Vinyl sticker pack with L├ÜA AUREA designs","price":9.99,"imageUrl":"https://firebasestorage.googleapis.com/v0/b/artist-boost.firebasestorage.app/o/artist-images%2F1777257197735_rmxfy8.png?alt=media","category":"Accessories","productType":"Sticker Pack","sizes":["Standard"],"isCustom":false,"aiGenerated":true,"salesCount":0,"createdAt":1777257221551},{"id":"SEqVI0xccjxLQXx4gEpm","name":"L├ÜA AUREA Cap","description":"Embroidered L├ÜA AUREA snapback cap","price":59,"imageUrl":"https://firebasestorage.googleapis.com/v0/b/artist-boost.firebasestorage.app/o/artist-images%2F1777257203890_ymtdts.png?alt=media","category":"Accessories","productType":"Cap","sizes":["One Size"],"isCustom":false,"aiGenerated":true,"salesCount":0,"createdAt":1777257221566},{"id":"TeD6foEaytHT3pOcAERP","name":"L├ÜA AUREA Mug","description":"Ceramic mug with full-wrap L├ÜA AUREA design","price":24.99,"imageUrl":"https://firebasestorage.googleapis.com/v0/b/artist-boost.firebasestorage.app/o/artist-images%2F1777257202556_x0amqc.png?alt=media","category":"Accessories","productType":"Mug","sizes":["11oz","15oz"],"isCustom":false,"aiGenerated":true,"salesCount":0,"createdAt":1777257221555},{"id":"VZjnkrWdoTxXZbn854MK","name":"L├ÜA AUREA T-Shirt","description":"Official L├ÜA AUREA t-shirt","price":59.99,"imageUrl":"https://firebasestorage.googleapis.com/v0/b/artist-boost.firebasestorage.app/o/artist-images%2F1777257199882_1evdlw9.png?alt=media","category":"Apparel","productType":"T-Shirt","sizes":["S","M","L","XL","XXL"],"isCustom":false,"aiGenerated":true,"salesCount":0,"createdAt":1777257221562},{"id":"zvEnwYCHk1DRTSUAPSsv","name":"L├ÜA AUREA Poster","description":"Limited edition L├ÜA AUREA poster","price":19.99,"imageUrl":"https://firebasestorage.googleapis.com/v0/b/artist-boost.firebasestorage.app/o/artist-images%2F1777257200590_9ifiep.png?alt=media","category":"Art","productType":"Poster","sizes":["18x24\"","24x36\""],"isCustom":false,"aiGenerated":true,"salesCount":0,"createdAt":1777257221544},{"id":"6RHTUJhCZtuNPlRldk83","name":"Artist Kiss-Cut Stickers","description":"Official Artist premium vinyl stickers. Weather-resistant, dishwasher safe, easy peel-and-stick.","price":4.99,"imageUrl":"https://firebasestorage.googleapis.com/v0/b/artist-boost.firebasestorage.app/o/artist-images%2F1777258631595_4420ne.png?alt=media","category":"Accessories","productType":"Sticker Pack","sizes":["3├ù3ΓÇ│","4├ù4ΓÇ│","5.5├ù5.5ΓÇ│"],"isCustom":false,"aiGenerated":false,"salesCount":0,"createdAt":1777258634159}]}
